<svg xmlns="http://www.w3.org/2000/svg" width="13" height="17.333" viewBox="0 0 13 17.333">
  <path id="icon-posisiPositif" d="M5.832,16.984C.913,9.853,0,9.121,0,6.5a6.5,6.5,0,0,1,13,0c0,2.621-.913,3.353-5.832,10.484a.813.813,0,0,1-1.336,0ZM6.5,9.208A2.708,2.708,0,1,0,3.792,6.5,2.708,2.708,0,0,0,6.5,9.208Z" fill="red"/>
</svg>
